Mesh 'Parallel Mesh':
Max sizes cone: 6 support: 3
orientation is missing
cap --> base:
[0]: 1 ----> 15
[0]: 1 ----> 18
[0]: 1 ----> 24
[0]: 2 ----> 15
[0]: 2 ----> 16
[0]: 2 ----> 25
[0]: 3 ----> 16
[0]: 3 ----> 17
[0]: 3 ----> 26
[0]: 4 ----> 17
[0]: 4 ----> 18
[0]: 4 ----> 23
[0]: 5 ----> 19
[0]: 5 ----> 22
[0]: 5 ----> 24
[0]: 6 ----> 19
[0]: 6 ----> 20
[0]: 6 ----> 23
[0]: 7 ----> 20
[0]: 7 ----> 21
[0]: 7 ----> 26
[0]: 8 ----> 21
[0]: 8 ----> 22
[0]: 8 ----> 25
[0]: 9 ----> 0
[0]: 10 ----> 0
[0]: 11 ----> 0
[0]: 12 ----> 0
[0]: 13 ----> 0
[0]: 14 ----> 0
[0]: 15 ----> 9
[0]: 15 ----> 14
[0]: 16 ----> 9
[0]: 16 ----> 12
[0]: 17 ----> 9
[0]: 17 ----> 13
[0]: 18 ----> 9
[0]: 18 ----> 11
[0]: 19 ----> 10
[0]: 19 ----> 11
[0]: 20 ----> 10
[0]: 20 ----> 13
[0]: 21 ----> 10
[0]: 21 ----> 12
[0]: 22 ----> 10
[0]: 22 ----> 14
[0]: 23 ----> 11
[0]: 23 ----> 13
[0]: 24 ----> 11
[0]: 24 ----> 14
[0]: 25 ----> 12
[0]: 25 ----> 14
[0]: 26 ----> 12
[0]: 26 ----> 13
Max sizes cone: 6 support: 3
[1]: 1 ----> 15
[1]: 1 ----> 18
[1]: 1 ----> 19
[1]: 2 ----> 15
[1]: 2 ----> 17
[1]: 2 ----> 21
[1]: 3 ----> 16
[1]: 3 ----> 17
[1]: 3 ----> 22
[1]: 4 ----> 16
[1]: 4 ----> 18
[1]: 4 ----> 24
[1]: 5 ----> 19
[1]: 5 ----> 20
[1]: 5 ----> 26
[1]: 6 ----> 20
[1]: 6 ----> 21
[1]: 6 ----> 25
[1]: 7 ----> 22
[1]: 7 ----> 23
[1]: 7 ----> 25
[1]: 8 ----> 23
[1]: 8 ----> 24
[1]: 8 ----> 26
[1]: 9 ----> 0
[1]: 10 ----> 0
[1]: 11 ----> 0
[1]: 12 ----> 0
[1]: 13 ----> 0
[1]: 14 ----> 0
[1]: 15 ----> 9
[1]: 15 ----> 10
[1]: 16 ----> 9
[1]: 16 ----> 11
[1]: 17 ----> 9
[1]: 17 ----> 12
[1]: 18 ----> 9
[1]: 18 ----> 13
[1]: 19 ----> 10
[1]: 19 ----> 13
[1]: 20 ----> 10
[1]: 20 ----> 14
[1]: 21 ----> 10
[1]: 21 ----> 12
[1]: 22 ----> 11
[1]: 22 ----> 12
[1]: 23 ----> 11
[1]: 23 ----> 14
[1]: 24 ----> 11
[1]: 24 ----> 13
[1]: 25 ----> 12
[1]: 25 ----> 14
[1]: 26 ----> 13
[1]: 26 ----> 14
base <-- cap:
[0]: 0 <---- 9 (0)
[0]: 0 <---- 10 (0)
[0]: 0 <---- 11 (0)
[0]: 0 <---- 12 (0)
[0]: 0 <---- 13 (0)
[0]: 0 <---- 14 (0)
[0]: 9 <---- 15 (0)
[0]: 9 <---- 16 (0)
[0]: 9 <---- 17 (0)
[0]: 9 <---- 18 (0)
[0]: 10 <---- 19 (0)
[0]: 10 <---- 20 (0)
[0]: 10 <---- 21 (0)
[0]: 10 <---- 22 (0)
[0]: 11 <---- 18 (-2)
[0]: 11 <---- 23 (0)
[0]: 11 <---- 19 (-2)
[0]: 11 <---- 24 (0)
[0]: 12 <---- 16 (-2)
[0]: 12 <---- 25 (0)
[0]: 12 <---- 21 (-2)
[0]: 12 <---- 26 (0)
[0]: 13 <---- 17 (-2)
[0]: 13 <---- 26 (-2)
[0]: 13 <---- 20 (-2)
[0]: 13 <---- 23 (-2)
[0]: 14 <---- 24 (-2)
[0]: 14 <---- 22 (-2)
[0]: 14 <---- 25 (-2)
[0]: 14 <---- 15 (-2)
[0]: 15 <---- 1 (0)
[0]: 15 <---- 2 (0)
[0]: 16 <---- 2 (0)
[0]: 16 <---- 3 (0)
[0]: 17 <---- 3 (0)
[0]: 17 <---- 4 (0)
[0]: 18 <---- 4 (0)
[0]: 18 <---- 1 (0)
[0]: 19 <---- 5 (0)
[0]: 19 <---- 6 (0)
[0]: 20 <---- 6 (0)
[0]: 20 <---- 7 (0)
[0]: 21 <---- 7 (0)
[0]: 21 <---- 8 (0)
[0]: 22 <---- 8 (0)
[0]: 22 <---- 5 (0)
[0]: 23 <---- 4 (0)
[0]: 23 <---- 6 (0)
[0]: 24 <---- 5 (0)
[0]: 24 <---- 1 (0)
[0]: 25 <---- 2 (0)
[0]: 25 <---- 8 (0)
[0]: 26 <---- 7 (0)
[0]: 26 <---- 3 (0)
[1]: 0 <---- 10 (0)
[1]: 0 <---- 11 (0)
[1]: 0 <---- 12 (0)
[1]: 0 <---- 13 (0)
[1]: 0 <---- 14 (0)
[1]: 0 <---- 9 (-4)
[1]: 9 <---- 15 (-2)
[1]: 9 <---- 18 (-2)
[1]: 9 <---- 16 (-2)
[1]: 9 <---- 17 (-2)
[1]: 10 <---- 15 (-2)
[1]: 10 <---- 19 (0)
[1]: 10 <---- 20 (0)
[1]: 10 <---- 21 (0)
[1]: 11 <---- 22 (0)
[1]: 11 <---- 23 (0)
[1]: 11 <---- 24 (0)
[1]: 11 <---- 16 (-2)
[1]: 12 <---- 21 (-2)
[1]: 12 <---- 25 (0)
[1]: 12 <---- 22 (-2)
[1]: 12 <---- 17 (-2)
[1]: 13 <---- 19 (-2)
[1]: 13 <---- 18 (-2)
[1]: 13 <---- 24 (-2)
[1]: 13 <---- 26 (0)
[1]: 14 <---- 20 (-2)
[1]: 14 <---- 26 (-2)
[1]: 14 <---- 23 (-2)
[1]: 14 <---- 25 (-2)
[1]: 15 <---- 1 (0)
[1]: 15 <---- 2 (0)
[1]: 16 <---- 3 (0)
[1]: 16 <---- 4 (0)
[1]: 17 <---- 2 (0)
[1]: 17 <---- 3 (0)
[1]: 18 <---- 4 (0)
[1]: 18 <---- 1 (0)
[1]: 19 <---- 1 (0)
[1]: 19 <---- 5 (0)
[1]: 20 <---- 5 (0)
[1]: 20 <---- 6 (0)
[1]: 21 <---- 6 (0)
[1]: 21 <---- 2 (0)
[1]: 22 <---- 3 (0)
[1]: 22 <---- 7 (0)
[1]: 23 <---- 7 (0)
[1]: 23 <---- 8 (0)
[1]: 24 <---- 8 (0)
[1]: 24 <---- 4 (0)
[1]: 25 <---- 6 (0)
[1]: 25 <---- 7 (0)
[1]: 26 <---- 8 (0)
[1]: 26 <---- 5 (0)
coordinates with 1 fields
  field 0 with 3 components
Process 0:
  (   1) dim  3 offset   0 -1 -0.5 -0.5
  (   2) dim  3 offset   3 -1 0.5 -0.5
  (   3) dim  3 offset   6 0 0.5 -0.5
  (   4) dim  3 offset   9 0 -0.5 -0.5
  (   5) dim  3 offset  12 -1 -0.5 0.5
  (   6) dim  3 offset  15 0 -0.5 0.5
  (   7) dim  3 offset  18 0 0.5 0.5
  (   8) dim  3 offset  21 -1 0.5 0.5
Process 1:
  (   1) dim  3 offset   0 0 0.5 -0.5
  (   2) dim  3 offset   3 0 -0.5 -0.5
  (   3) dim  3 offset   6 0 -0.5 0.5
  (   4) dim  3 offset   9 0 0.5 0.5
  (   5) dim  3 offset  12 1 0.5 -0.5
  (   6) dim  3 offset  15 1 -0.5 -0.5
  (   7) dim  3 offset  18 1 -0.5 0.5
  (   8) dim  3 offset  21 1 0.5 0.5
PetscSF Object: 2 MPI processes
  type: basic
    sort=rank-order
  [0] Number of roots=27, leaves=9, remote ranks=1
  [0] 3 <- (1,1)
  [0] 4 <- (1,2)
  [0] 6 <- (1,3)
  [0] 7 <- (1,4)
  [0] 13 <- (1,9)
  [0] 17 <- (1,15)
  [0] 20 <- (1,16)
  [0] 23 <- (1,17)
  [0] 26 <- (1,18)
  [1] Number of roots=27, leaves=0, remote ranks=0
  [0] Roots referenced by my leaves, by rank
  [0] 1: 9 edges
  [0]    3 <- 1
  [0]    4 <- 2
  [0]    6 <- 3
  [0]    7 <- 4
  [0]    13 <- 9
  [0]    17 <- 15
  [0]    20 <- 16
  [0]    23 <- 17
  [0]    26 <- 18
  [1] Roots referenced by my leaves, by rank
Mesh 'Hybrid Mesh':
Max sizes cone: 6 support: 6
orientation is missing
cap --> base:
[0]: 8 ----> 71
[0]: 8 ----> 78
[0]: 8 ----> 90
[0]: 9 ----> 72
[0]: 9 ----> 73
[0]: 9 ----> 91
[0]: 10 ----> 74
[0]: 10 ----> 75
[0]: 10 ----> 94
[0]: 11 ----> 76
[0]: 11 ----> 77
[0]: 11 ----> 87
[0]: 12 ----> 79
[0]: 12 ----> 86
[0]: 12 ----> 89
[0]: 13 ----> 80
[0]: 13 ----> 81
[0]: 13 ----> 88
[0]: 14 ----> 82
[0]: 14 ----> 83
[0]: 14 ----> 93
[0]: 15 ----> 84
[0]: 15 ----> 85
[0]: 15 ----> 92
[0]: 16 ----> 71
[0]: 16 ----> 72
[0]: 16 ----> 95
[0]: 16 ----> 118
[0]: 17 ----> 73
[0]: 17 ----> 74
[0]: 17 ----> 96
[0]: 17 ----> 107
[0]: 18 ----> 75
[0]: 18 ----> 76
[0]: 18 ----> 97
[0]: 18 ----> 111
[0]: 19 ----> 77
[0]: 19 ----> 78
[0]: 19 ----> 98
[0]: 19 ----> 103
[0]: 20 ----> 79
[0]: 20 ----> 80
[0]: 20 ----> 99
[0]: 20 ----> 105
[0]: 21 ----> 81
[0]: 21 ----> 82
[0]: 21 ----> 100
[0]: 21 ----> 113
[0]: 22 ----> 83
[0]: 22 ----> 84
[0]: 22 ----> 101
[0]: 22 ----> 109
[0]: 23 ----> 85
[0]: 23 ----> 86
[0]: 23 ----> 102
[0]: 23 ----> 116
[0]: 24 ----> 87
[0]: 24 ----> 88
[0]: 24 ----> 104
[0]: 24 ----> 114
[0]: 25 ----> 89
[0]: 25 ----> 90
[0]: 25 ----> 106
[0]: 25 ----> 115
[0]: 26 ----> 91
[0]: 26 ----> 92
[0]: 26 ----> 108
[0]: 26 ----> 117
[0]: 27 ----> 93
[0]: 27 ----> 94
[0]: 27 ----> 110
[0]: 27 ----> 112
[0]: 28 ----> 95
[0]: 28 ----> 96
[0]: 28 ----> 97
[0]: 28 ----> 98
[0]: 28 ----> 119
[0]: 29 ----> 99
[0]: 29 ----> 100
[0]: 29 ----> 101
[0]: 29 ----> 102
[0]: 29 ----> 120
[0]: 30 ----> 103
[0]: 30 ----> 104
[0]: 30 ----> 105
[0]: 30 ----> 106
[0]: 30 ----> 121
[0]: 31 ----> 107
[0]: 31 ----> 108
[0]: 31 ----> 109
[0]: 31 ----> 110
[0]: 31 ----> 122
[0]: 32 ----> 111
[0]: 32 ----> 112
[0]: 32 ----> 113
[0]: 32 ----> 114
[0]: 32 ----> 123
[0]: 33 ----> 115
[0]: 33 ----> 116
[0]: 33 ----> 117
[0]: 33 ----> 118
[0]: 33 ----> 124
[0]: 34 ----> 119
[0]: 34 ----> 120
[0]: 34 ----> 121
[0]: 34 ----> 122
[0]: 34 ----> 123
[0]: 34 ----> 124
[0]: 35 ----> 0
[0]: 36 ----> 1
[0]: 37 ----> 2
[0]: 38 ----> 3
[0]: 39 ----> 4
[0]: 40 ----> 5
[0]: 41 ----> 6
[0]: 42 ----> 7
[0]: 43 ----> 0
[0]: 44 ----> 3
[0]: 45 ----> 5
[0]: 46 ----> 4
[0]: 47 ----> 2
[0]: 48 ----> 1
[0]: 49 ----> 7
[0]: 50 ----> 6
[0]: 51 ----> 3
[0]: 52 ----> 2
[0]: 53 ----> 6
[0]: 54 ----> 5
[0]: 55 ----> 0
[0]: 56 ----> 4
[0]: 57 ----> 7
[0]: 58 ----> 1
[0]: 59 ----> 0
[0]: 59 ----> 3
[0]: 60 ----> 2
[0]: 60 ----> 3
[0]: 61 ----> 1
[0]: 61 ----> 2
[0]: 62 ----> 0
[0]: 62 ----> 1
[0]: 63 ----> 4
[0]: 63 ----> 5
[0]: 64 ----> 5
[0]: 64 ----> 6
[0]: 65 ----> 6
[0]: 65 ----> 7
[0]: 66 ----> 4
[0]: 66 ----> 7
[0]: 67 ----> 0
[0]: 67 ----> 4
[0]: 68 ----> 3
[0]: 68 ----> 5
[0]: 69 ----> 2
[0]: 69 ----> 6
[0]: 70 ----> 1
[0]: 70 ----> 7
[0]: 71 ----> 35
[0]: 71 ----> 55
[0]: 72 ----> 36
[0]: 72 ----> 58
[0]: 73 ----> 36
[0]: 73 ----> 48
[0]: 74 ----> 37
[0]: 74 ----> 47
[0]: 75 ----> 37
[0]: 75 ----> 52
[0]: 76 ----> 38
[0]: 76 ----> 51
[0]: 77 ----> 38
[0]: 77 ----> 44
[0]: 78 ----> 35
[0]: 78 ----> 43
[0]: 79 ----> 39
[0]: 79 ----> 46
[0]: 80 ----> 40
[0]: 80 ----> 45
[0]: 81 ----> 40
[0]: 81 ----> 54
[0]: 82 ----> 41
[0]: 82 ----> 53
[0]: 83 ----> 41
[0]: 83 ----> 50
[0]: 84 ----> 42
[0]: 84 ----> 49
[0]: 85 ----> 42
[0]: 85 ----> 57
[0]: 86 ----> 39
[0]: 86 ----> 56
[0]: 87 ----> 44
[0]: 87 ----> 51
[0]: 88 ----> 45
[0]: 88 ----> 54
[0]: 89 ----> 46
[0]: 89 ----> 56
[0]: 90 ----> 43
[0]: 90 ----> 55
[0]: 91 ----> 48
[0]: 91 ----> 58
[0]: 92 ----> 49
[0]: 92 ----> 57
[0]: 93 ----> 50
[0]: 93 ----> 53
[0]: 94 ----> 47
[0]: 94 ----> 52
[0]: 95 ----> 35
[0]: 95 ----> 36
[0]: 95 ----> 62
[0]: 96 ----> 36
[0]: 96 ----> 37
[0]: 96 ----> 61
[0]: 97 ----> 37
[0]: 97 ----> 38
[0]: 97 ----> 60
[0]: 98 ----> 38
[0]: 98 ----> 35
[0]: 98 ----> 59
[0]: 99 ----> 39
[0]: 99 ----> 40
[0]: 99 ----> 63
[0]: 100 ----> 40
[0]: 100 ----> 41
[0]: 100 ----> 64
[0]: 101 ----> 41
[0]: 101 ----> 42
[0]: 101 ----> 65
[0]: 102 ----> 42
[0]: 102 ----> 39
[0]: 102 ----> 66
[0]: 103 ----> 43
[0]: 103 ----> 44
[0]: 103 ----> 59
[0]: 104 ----> 44
[0]: 104 ----> 45
[0]: 104 ----> 68
[0]: 105 ----> 45
[0]: 105 ----> 46
[0]: 105 ----> 63
[0]: 106 ----> 46
[0]: 106 ----> 43
[0]: 106 ----> 67
[0]: 107 ----> 47
[0]: 107 ----> 48
[0]: 107 ----> 61
[0]: 108 ----> 48
[0]: 108 ----> 49
[0]: 108 ----> 70
[0]: 109 ----> 49
[0]: 109 ----> 50
[0]: 109 ----> 65
[0]: 110 ----> 50
[0]: 110 ----> 47
[0]: 110 ----> 69
[0]: 111 ----> 51
[0]: 111 ----> 52
[0]: 111 ----> 60
[0]: 112 ----> 52
[0]: 112 ----> 53
[0]: 112 ----> 69
[0]: 113 ----> 53
[0]: 113 ----> 54
[0]: 113 ----> 64
[0]: 114 ----> 54
[0]: 114 ----> 51
[0]: 114 ----> 68
[0]: 115 ----> 55
[0]: 115 ----> 56
[0]: 115 ----> 67
[0]: 116 ----> 56
[0]: 116 ----> 57
[0]: 116 ----> 66
[0]: 117 ----> 57
[0]: 117 ----> 58
[0]: 117 ----> 70
[0]: 118 ----> 58
[0]: 118 ----> 55
[0]: 118 ----> 62
[0]: 119 ----> 59
[0]: 119 ----> 60
[0]: 119 ----> 61
[0]: 119 ----> 62
[0]: 120 ----> 63
[0]: 120 ----> 64
[0]: 120 ----> 65
[0]: 120 ----> 66
[0]: 121 ----> 59
[0]: 121 ----> 68
[0]: 121 ----> 63
[0]: 121 ----> 67
[0]: 122 ----> 61
[0]: 122 ----> 70
[0]: 122 ----> 65
[0]: 122 ----> 69
[0]: 123 ----> 60
[0]: 123 ----> 69
[0]: 123 ----> 64
[0]: 123 ----> 68
[0]: 124 ----> 62
[0]: 124 ----> 67
[0]: 124 ----> 66
[0]: 124 ----> 70
Max sizes cone: 6 support: 6
[1]: 8 ----> 71
[1]: 8 ----> 78
[1]: 8 ----> 79
[1]: 9 ----> 72
[1]: 9 ----> 75
[1]: 9 ----> 84
[1]: 10 ----> 73
[1]: 10 ----> 76
[1]: 10 ----> 85
[1]: 11 ----> 74
[1]: 11 ----> 77
[1]: 11 ----> 90
[1]: 12 ----> 80
[1]: 12 ----> 81
[1]: 12 ----> 94
[1]: 13 ----> 82
[1]: 13 ----> 83
[1]: 13 ----> 91
[1]: 14 ----> 86
[1]: 14 ----> 87
[1]: 14 ----> 92
[1]: 15 ----> 88
[1]: 15 ----> 89
[1]: 15 ----> 93
[1]: 16 ----> 71
[1]: 16 ----> 72
[1]: 16 ----> 95
[1]: 16 ----> 99
[1]: 17 ----> 73
[1]: 17 ----> 74
[1]: 17 ----> 97
[1]: 17 ----> 106
[1]: 18 ----> 75
[1]: 18 ----> 76
[1]: 18 ----> 98
[1]: 18 ----> 110
[1]: 19 ----> 77
[1]: 19 ----> 78
[1]: 19 ----> 96
[1]: 19 ----> 112
[1]: 20 ----> 79
[1]: 20 ----> 80
[1]: 20 ----> 100
[1]: 20 ----> 111
[1]: 21 ----> 81
[1]: 21 ----> 82
[1]: 21 ----> 101
[1]: 21 ----> 115
[1]: 22 ----> 83
[1]: 22 ----> 84
[1]: 22 ----> 102
[1]: 22 ----> 107
[1]: 23 ----> 85
[1]: 23 ----> 86
[1]: 23 ----> 103
[1]: 23 ----> 109
[1]: 24 ----> 87
[1]: 24 ----> 88
[1]: 24 ----> 104
[1]: 24 ----> 117
[1]: 25 ----> 89
[1]: 25 ----> 90
[1]: 25 ----> 105
[1]: 25 ----> 113
[1]: 26 ----> 91
[1]: 26 ----> 92
[1]: 26 ----> 108
[1]: 26 ----> 118
[1]: 27 ----> 93
[1]: 27 ----> 94
[1]: 27 ----> 114
[1]: 27 ----> 116
[1]: 28 ----> 95
[1]: 28 ----> 96
[1]: 28 ----> 97
[1]: 28 ----> 98
[1]: 28 ----> 124
[1]: 29 ----> 99
[1]: 29 ----> 100
[1]: 29 ----> 101
[1]: 29 ----> 102
[1]: 29 ----> 119
[1]: 30 ----> 103
[1]: 30 ----> 104
[1]: 30 ----> 105
[1]: 30 ----> 106
[1]: 30 ----> 120
[1]: 31 ----> 107
[1]: 31 ----> 108
[1]: 31 ----> 109
[1]: 31 ----> 110
[1]: 31 ----> 121
[1]: 32 ----> 111
[1]: 32 ----> 112
[1]: 32 ----> 113
[1]: 32 ----> 114
[1]: 32 ----> 122
[1]: 33 ----> 115
[1]: 33 ----> 116
[1]: 33 ----> 117
[1]: 33 ----> 118
[1]: 33 ----> 123
[1]: 34 ----> 119
[1]: 34 ----> 120
[1]: 34 ----> 121
[1]: 34 ----> 122
[1]: 34 ----> 123
[1]: 34 ----> 124
[1]: 35 ----> 0
[1]: 36 ----> 1
[1]: 37 ----> 7
[1]: 38 ----> 4
[1]: 39 ----> 0
[1]: 40 ----> 1
[1]: 41 ----> 2
[1]: 42 ----> 3
[1]: 43 ----> 4
[1]: 44 ----> 5
[1]: 45 ----> 6
[1]: 46 ----> 7
[1]: 47 ----> 0
[1]: 48 ----> 3
[1]: 49 ----> 5
[1]: 50 ----> 4
[1]: 51 ----> 2
[1]: 52 ----> 1
[1]: 53 ----> 7
[1]: 54 ----> 6
[1]: 55 ----> 3
[1]: 56 ----> 2
[1]: 57 ----> 6
[1]: 58 ----> 5
[1]: 59 ----> 0
[1]: 59 ----> 3
[1]: 60 ----> 2
[1]: 60 ----> 3
[1]: 61 ----> 1
[1]: 61 ----> 2
[1]: 62 ----> 0
[1]: 62 ----> 1
[1]: 63 ----> 4
[1]: 63 ----> 5
[1]: 64 ----> 5
[1]: 64 ----> 6
[1]: 65 ----> 6
[1]: 65 ----> 7
[1]: 66 ----> 4
[1]: 66 ----> 7
[1]: 67 ----> 0
[1]: 67 ----> 4
[1]: 68 ----> 3
[1]: 68 ----> 5
[1]: 69 ----> 2
[1]: 69 ----> 6
[1]: 70 ----> 1
[1]: 70 ----> 7
[1]: 71 ----> 36
[1]: 71 ----> 40
[1]: 72 ----> 35
[1]: 72 ----> 39
[1]: 73 ----> 38
[1]: 73 ----> 43
[1]: 74 ----> 37
[1]: 74 ----> 46
[1]: 75 ----> 35
[1]: 75 ----> 47
[1]: 76 ----> 38
[1]: 76 ----> 50
[1]: 77 ----> 37
[1]: 77 ----> 53
[1]: 78 ----> 36
[1]: 78 ----> 52
[1]: 79 ----> 40
[1]: 79 ----> 52
[1]: 80 ----> 41
[1]: 80 ----> 51
[1]: 81 ----> 41
[1]: 81 ----> 56
[1]: 82 ----> 42
[1]: 82 ----> 55
[1]: 83 ----> 42
[1]: 83 ----> 48
[1]: 84 ----> 39
[1]: 84 ----> 47
[1]: 85 ----> 43
[1]: 85 ----> 50
[1]: 86 ----> 44
[1]: 86 ----> 49
[1]: 87 ----> 44
[1]: 87 ----> 58
[1]: 88 ----> 45
[1]: 88 ----> 57
[1]: 89 ----> 45
[1]: 89 ----> 54
[1]: 90 ----> 46
[1]: 90 ----> 53
[1]: 91 ----> 48
[1]: 91 ----> 55
[1]: 92 ----> 49
[1]: 92 ----> 58
[1]: 93 ----> 54
[1]: 93 ----> 57
[1]: 94 ----> 51
[1]: 94 ----> 56
[1]: 95 ----> 35
[1]: 95 ----> 36
[1]: 95 ----> 62
[1]: 96 ----> 36
[1]: 96 ----> 37
[1]: 96 ----> 70
[1]: 97 ----> 37
[1]: 97 ----> 38
[1]: 97 ----> 66
[1]: 98 ----> 38
[1]: 98 ----> 35
[1]: 98 ----> 67
[1]: 99 ----> 39
[1]: 99 ----> 40
[1]: 99 ----> 62
[1]: 100 ----> 40
[1]: 100 ----> 41
[1]: 100 ----> 61
[1]: 101 ----> 41
[1]: 101 ----> 42
[1]: 101 ----> 60
[1]: 102 ----> 42
[1]: 102 ----> 39
[1]: 102 ----> 59
[1]: 103 ----> 43
[1]: 103 ----> 44
[1]: 103 ----> 63
[1]: 104 ----> 44
[1]: 104 ----> 45
[1]: 104 ----> 64
[1]: 105 ----> 45
[1]: 105 ----> 46
[1]: 105 ----> 65
[1]: 106 ----> 46
[1]: 106 ----> 43
[1]: 106 ----> 66
[1]: 107 ----> 47
[1]: 107 ----> 48
[1]: 107 ----> 59
[1]: 108 ----> 48
[1]: 108 ----> 49
[1]: 108 ----> 68
[1]: 109 ----> 49
[1]: 109 ----> 50
[1]: 109 ----> 63
[1]: 110 ----> 50
[1]: 110 ----> 47
[1]: 110 ----> 67
[1]: 111 ----> 51
[1]: 111 ----> 52
[1]: 111 ----> 61
[1]: 112 ----> 52
[1]: 112 ----> 53
[1]: 112 ----> 70
[1]: 113 ----> 53
[1]: 113 ----> 54
[1]: 113 ----> 65
[1]: 114 ----> 54
[1]: 114 ----> 51
[1]: 114 ----> 69
[1]: 115 ----> 55
[1]: 115 ----> 56
[1]: 115 ----> 60
[1]: 116 ----> 56
[1]: 116 ----> 57
[1]: 116 ----> 69
[1]: 117 ----> 57
[1]: 117 ----> 58
[1]: 117 ----> 64
[1]: 118 ----> 58
[1]: 118 ----> 55
[1]: 118 ----> 68
[1]: 119 ----> 59
[1]: 119 ----> 60
[1]: 119 ----> 61
[1]: 119 ----> 62
[1]: 120 ----> 63
[1]: 120 ----> 64
[1]: 120 ----> 65
[1]: 120 ----> 66
[1]: 121 ----> 59
[1]: 121 ----> 68
[1]: 121 ----> 63
[1]: 121 ----> 67
[1]: 122 ----> 61
[1]: 122 ----> 70
[1]: 122 ----> 65
[1]: 122 ----> 69
[1]: 123 ----> 60
[1]: 123 ----> 69
[1]: 123 ----> 64
[1]: 123 ----> 68
[1]: 124 ----> 62
[1]: 124 ----> 67
[1]: 124 ----> 66
[1]: 124 ----> 70
base <-- cap:
[0]: 0 <---- 35 (0)
[0]: 0 <---- 67 (0)
[0]: 0 <---- 43 (0)
[0]: 0 <---- 62 (0)
[0]: 0 <---- 59 (0)
[0]: 0 <---- 55 (0)
[0]: 1 <---- 36 (0)
[0]: 1 <---- 70 (0)
[0]: 1 <---- 62 (-1)
[0]: 1 <---- 48 (0)
[0]: 1 <---- 61 (0)
[0]: 1 <---- 58 (0)
[0]: 2 <---- 37 (0)
[0]: 2 <---- 69 (0)
[0]: 2 <---- 60 (-1)
[0]: 2 <---- 47 (0)
[0]: 2 <---- 52 (0)
[0]: 2 <---- 61 (-4)
[0]: 3 <---- 38 (0)
[0]: 3 <---- 68 (0)
[0]: 3 <---- 44 (0)
[0]: 3 <---- 60 (0)
[0]: 3 <---- 51 (0)
[0]: 3 <---- 59 (-4)
[0]: 4 <---- 67 (-4)
[0]: 4 <---- 39 (0)
[0]: 4 <---- 46 (0)
[0]: 4 <---- 66 (0)
[0]: 4 <---- 63 (-1)
[0]: 4 <---- 56 (0)
[0]: 5 <---- 68 (-4)
[0]: 5 <---- 40 (0)
[0]: 5 <---- 45 (0)
[0]: 5 <---- 64 (-1)
[0]: 5 <---- 54 (0)
[0]: 5 <---- 63 (1)
[0]: 6 <---- 69 (-4)
[0]: 6 <---- 41 (0)
[0]: 6 <---- 64 (0)
[0]: 6 <---- 50 (0)
[0]: 6 <---- 53 (0)
[0]: 6 <---- 65 (-3)
[0]: 7 <---- 70 (-4)
[0]: 7 <---- 42 (0)
[0]: 7 <---- 66 (-1)
[0]: 7 <---- 49 (0)
[0]: 7 <---- 65 (3)
[0]: 7 <---- 57 (0)
[0]: 35 <---- 71 (0)
[0]: 35 <---- 95 (0)
[0]: 35 <---- 98 (-2)
[0]: 35 <---- 78 (0)
[0]: 36 <---- 72 (0)
[0]: 36 <---- 73 (0)
[0]: 36 <---- 96 (0)
[0]: 36 <---- 95 (-2)
[0]: 37 <---- 96 (-2)
[0]: 37 <---- 74 (0)
[0]: 37 <---- 75 (0)
[0]: 37 <---- 97 (0)
[0]: 38 <---- 98 (0)
[0]: 38 <---- 97 (-2)
[0]: 38 <---- 76 (0)
[0]: 38 <---- 77 (0)
[0]: 39 <---- 79 (0)
[0]: 39 <---- 99 (0)
[0]: 39 <---- 102 (-2)
[0]: 39 <---- 86 (0)
[0]: 40 <---- 80 (0)
[0]: 40 <---- 81 (0)
[0]: 40 <---- 100 (0)
[0]: 40 <---- 99 (-2)
[0]: 41 <---- 100 (-2)
[0]: 41 <---- 82 (0)
[0]: 41 <---- 83 (0)
[0]: 41 <---- 101 (0)
[0]: 42 <---- 102 (0)
[0]: 42 <---- 101 (-2)
[0]: 42 <---- 84 (0)
[0]: 42 <---- 85 (0)
[0]: 43 <---- 78 (-2)
[0]: 43 <---- 103 (0)
[0]: 43 <---- 106 (-2)
[0]: 43 <---- 90 (0)
[0]: 44 <---- 77 (-2)
[0]: 44 <---- 87 (0)
[0]: 44 <---- 104 (0)
[0]: 44 <---- 103 (-2)
[0]: 45 <---- 104 (-2)
[0]: 45 <---- 88 (0)
[0]: 45 <---- 80 (-2)
[0]: 45 <---- 105 (0)
[0]: 46 <---- 106 (0)
[0]: 46 <---- 105 (-2)
[0]: 46 <---- 79 (-2)
[0]: 46 <---- 89 (0)
[0]: 47 <---- 74 (-2)
[0]: 47 <---- 107 (0)
[0]: 47 <---- 110 (-2)
[0]: 47 <---- 94 (0)
[0]: 48 <---- 73 (-2)
[0]: 48 <---- 91 (0)
[0]: 48 <---- 108 (0)
[0]: 48 <---- 107 (-2)
[0]: 49 <---- 108 (-2)
[0]: 49 <---- 92 (0)
[0]: 49 <---- 84 (-2)
[0]: 49 <---- 109 (0)
[0]: 50 <---- 110 (0)
[0]: 50 <---- 109 (-2)
[0]: 50 <---- 83 (-2)
[0]: 50 <---- 93 (0)
[0]: 51 <---- 76 (-2)
[0]: 51 <---- 111 (0)
[0]: 51 <---- 114 (-2)
[0]: 51 <---- 87 (-2)
[0]: 52 <---- 75 (-2)
[0]: 52 <---- 94 (-2)
[0]: 52 <---- 112 (0)
[0]: 52 <---- 111 (-2)
[0]: 53 <---- 112 (-2)
[0]: 53 <---- 93 (-2)
[0]: 53 <---- 82 (-2)
[0]: 53 <---- 113 (0)
[0]: 54 <---- 114 (0)
[0]: 54 <---- 113 (-2)
[0]: 54 <---- 81 (-2)
[0]: 54 <---- 88 (-2)
[0]: 55 <---- 90 (-2)
[0]: 55 <---- 115 (0)
[0]: 55 <---- 118 (-2)
[0]: 55 <---- 71 (-2)
[0]: 56 <---- 89 (-2)
[0]: 56 <---- 86 (-2)
[0]: 56 <---- 116 (0)
[0]: 56 <---- 115 (-2)
[0]: 57 <---- 116 (-2)
[0]: 57 <---- 85 (-2)
[0]: 57 <---- 92 (-2)
[0]: 57 <---- 117 (0)
[0]: 58 <---- 118 (0)
[0]: 58 <---- 117 (-2)
[0]: 58 <---- 91 (-2)
[0]: 58 <---- 72 (-2)
[0]: 59 <---- 98 (0)
[0]: 59 <---- 119 (0)
[0]: 59 <---- 121 (-2)
[0]: 59 <---- 103 (-2)
[0]: 60 <---- 97 (0)
[0]: 60 <---- 119 (0)
[0]: 60 <---- 123 (-2)
[0]: 60 <---- 111 (-2)
[0]: 61 <---- 96 (-2)
[0]: 61 <---- 107 (0)
[0]: 61 <---- 122 (0)
[0]: 61 <---- 119 (-2)
[0]: 62 <---- 95 (-2)
[0]: 62 <---- 118 (0)
[0]: 62 <---- 124 (0)
[0]: 62 <---- 119 (-2)
[0]: 63 <---- 121 (-2)
[0]: 63 <---- 105 (-2)
[0]: 63 <---- 99 (0)
[0]: 63 <---- 120 (0)
[0]: 64 <---- 123 (-2)
[0]: 64 <---- 113 (-2)
[0]: 64 <---- 100 (0)
[0]: 64 <---- 120 (0)
[0]: 65 <---- 109 (-2)
[0]: 65 <---- 101 (0)
[0]: 65 <---- 120 (0)
[0]: 65 <---- 122 (-2)
[0]: 66 <---- 124 (-2)
[0]: 66 <---- 116 (-2)
[0]: 66 <---- 102 (0)
[0]: 66 <---- 120 (0)
[0]: 67 <---- 106 (0)
[0]: 67 <---- 121 (0)
[0]: 67 <---- 124 (-2)
[0]: 67 <---- 115 (-2)
[0]: 68 <---- 104 (-2)
[0]: 68 <---- 114 (0)
[0]: 68 <---- 123 (0)
[0]: 68 <---- 121 (-2)
[0]: 69 <---- 123 (-2)
[0]: 69 <---- 112 (-2)
[0]: 69 <---- 110 (0)
[0]: 69 <---- 122 (0)
[0]: 70 <---- 124 (0)
[0]: 70 <---- 122 (-2)
[0]: 70 <---- 108 (-2)
[0]: 70 <---- 117 (0)
[0]: 71 <---- 8 (0)
[0]: 71 <---- 16 (0)
[0]: 72 <---- 16 (0)
[0]: 72 <---- 9 (0)
[0]: 73 <---- 9 (0)
[0]: 73 <---- 17 (0)
[0]: 74 <---- 17 (0)
[0]: 74 <---- 10 (0)
[0]: 75 <---- 10 (0)
[0]: 75 <---- 18 (0)
[0]: 76 <---- 18 (0)
[0]: 76 <---- 11 (0)
[0]: 77 <---- 11 (0)
[0]: 77 <---- 19 (0)
[0]: 78 <---- 19 (0)
[0]: 78 <---- 8 (0)
[0]: 79 <---- 12 (0)
[0]: 79 <---- 20 (0)
[0]: 80 <---- 20 (0)
[0]: 80 <---- 13 (0)
[0]: 81 <---- 13 (0)
[0]: 81 <---- 21 (0)
[0]: 82 <---- 21 (0)
[0]: 82 <---- 14 (0)
[0]: 83 <---- 14 (0)
[0]: 83 <---- 22 (0)
[0]: 84 <---- 22 (0)
[0]: 84 <---- 15 (0)
[0]: 85 <---- 15 (0)
[0]: 85 <---- 23 (0)
[0]: 86 <---- 23 (0)
[0]: 86 <---- 12 (0)
[0]: 87 <---- 11 (0)
[0]: 87 <---- 24 (0)
[0]: 88 <---- 24 (0)
[0]: 88 <---- 13 (0)
[0]: 89 <---- 12 (0)
[0]: 89 <---- 25 (0)
[0]: 90 <---- 25 (0)
[0]: 90 <---- 8 (0)
[0]: 91 <---- 9 (0)
[0]: 91 <---- 26 (0)
[0]: 92 <---- 26 (0)
[0]: 92 <---- 15 (0)
[0]: 93 <---- 14 (0)
[0]: 93 <---- 27 (0)
[0]: 94 <---- 27 (0)
[0]: 94 <---- 10 (0)
[0]: 95 <---- 16 (0)
[0]: 95 <---- 28 (0)
[0]: 96 <---- 17 (0)
[0]: 96 <---- 28 (0)
[0]: 97 <---- 18 (0)
[0]: 97 <---- 28 (0)
[0]: 98 <---- 19 (0)
[0]: 98 <---- 28 (0)
[0]: 99 <---- 20 (0)
[0]: 99 <---- 29 (0)
[0]: 100 <---- 21 (0)
[0]: 100 <---- 29 (0)
[0]: 101 <---- 22 (0)
[0]: 101 <---- 29 (0)
[0]: 102 <---- 23 (0)
[0]: 102 <---- 29 (0)
[0]: 103 <---- 19 (0)
[0]: 103 <---- 30 (0)
[0]: 104 <---- 24 (0)
[0]: 104 <---- 30 (0)
[0]: 105 <---- 20 (0)
[0]: 105 <---- 30 (0)
[0]: 106 <---- 25 (0)
[0]: 106 <---- 30 (0)
[0]: 107 <---- 17 (0)
[0]: 107 <---- 31 (0)
[0]: 108 <---- 26 (0)
[0]: 108 <---- 31 (0)
[0]: 109 <---- 22 (0)
[0]: 109 <---- 31 (0)
[0]: 110 <---- 27 (0)
[0]: 110 <---- 31 (0)
[0]: 111 <---- 18 (0)
[0]: 111 <---- 32 (0)
[0]: 112 <---- 27 (0)
[0]: 112 <---- 32 (0)
[0]: 113 <---- 21 (0)
[0]: 113 <---- 32 (0)
[0]: 114 <---- 24 (0)
[0]: 114 <---- 32 (0)
[0]: 115 <---- 25 (0)
[0]: 115 <---- 33 (0)
[0]: 116 <---- 23 (0)
[0]: 116 <---- 33 (0)
[0]: 117 <---- 26 (0)
[0]: 117 <---- 33 (0)
[0]: 118 <---- 16 (0)
[0]: 118 <---- 33 (0)
[0]: 119 <---- 28 (0)
[0]: 119 <---- 34 (0)
[0]: 120 <---- 29 (0)
[0]: 120 <---- 34 (0)
[0]: 121 <---- 30 (0)
[0]: 121 <---- 34 (0)
[0]: 122 <---- 31 (0)
[0]: 122 <---- 34 (0)
[0]: 123 <---- 32 (0)
[0]: 123 <---- 34 (0)
[0]: 124 <---- 33 (0)
[0]: 124 <---- 34 (0)
[1]: 0 <---- 39 (0)
[1]: 0 <---- 67 (0)
[1]: 0 <---- 47 (0)
[1]: 0 <---- 62 (0)
[1]: 0 <---- 59 (0)
[1]: 0 <---- 35 (-4)
[1]: 1 <---- 40 (0)
[1]: 1 <---- 70 (0)
[1]: 1 <---- 62 (-1)
[1]: 1 <---- 52 (0)
[1]: 1 <---- 61 (0)
[1]: 1 <---- 36 (-4)
[1]: 2 <---- 41 (0)
[1]: 2 <---- 69 (0)
[1]: 2 <---- 60 (-1)
[1]: 2 <---- 51 (0)
[1]: 2 <---- 56 (0)
[1]: 2 <---- 61 (-4)
[1]: 3 <---- 42 (0)
[1]: 3 <---- 68 (0)
[1]: 3 <---- 48 (0)
[1]: 3 <---- 60 (0)
[1]: 3 <---- 55 (0)
[1]: 3 <---- 59 (-4)
[1]: 4 <---- 67 (-4)
[1]: 4 <---- 43 (0)
[1]: 4 <---- 50 (0)
[1]: 4 <---- 66 (0)
[1]: 4 <---- 63 (-1)
[1]: 4 <---- 38 (-4)
[1]: 5 <---- 68 (-4)
[1]: 5 <---- 44 (0)
[1]: 5 <---- 49 (0)
[1]: 5 <---- 64 (-1)
[1]: 5 <---- 58 (0)
[1]: 5 <---- 63 (1)
[1]: 6 <---- 69 (-4)
[1]: 6 <---- 45 (0)
[1]: 6 <---- 64 (0)
[1]: 6 <---- 54 (0)
[1]: 6 <---- 57 (0)
[1]: 6 <---- 65 (-3)
[1]: 7 <---- 70 (-4)
[1]: 7 <---- 46 (0)
[1]: 7 <---- 66 (-1)
[1]: 7 <---- 53 (0)
[1]: 7 <---- 65 (3)
[1]: 7 <---- 37 (-4)
[1]: 35 <---- 72 (-2)
[1]: 35 <---- 95 (0)
[1]: 35 <---- 98 (-2)
[1]: 35 <---- 75 (-2)
[1]: 36 <---- 71 (-2)
[1]: 36 <---- 78 (-2)
[1]: 36 <---- 96 (0)
[1]: 36 <---- 95 (-2)
[1]: 37 <---- 96 (-2)
[1]: 37 <---- 77 (-2)
[1]: 37 <---- 74 (-2)
[1]: 37 <---- 97 (0)
[1]: 38 <---- 98 (0)
[1]: 38 <---- 97 (-2)
[1]: 38 <---- 73 (-2)
[1]: 38 <---- 76 (-2)
[1]: 39 <---- 72 (-2)
[1]: 39 <---- 99 (0)
[1]: 39 <---- 102 (-2)
[1]: 39 <---- 84 (0)
[1]: 40 <---- 71 (-2)
[1]: 40 <---- 79 (0)
[1]: 40 <---- 100 (0)
[1]: 40 <---- 99 (-2)
[1]: 41 <---- 100 (-2)
[1]: 41 <---- 80 (0)
[1]: 41 <---- 81 (0)
[1]: 41 <---- 101 (0)
[1]: 42 <---- 102 (0)
[1]: 42 <---- 101 (-2)
[1]: 42 <---- 82 (0)
[1]: 42 <---- 83 (0)
[1]: 43 <---- 85 (0)
[1]: 43 <---- 103 (0)
[1]: 43 <---- 106 (-2)
[1]: 43 <---- 73 (-2)
[1]: 44 <---- 86 (0)
[1]: 44 <---- 87 (0)
[1]: 44 <---- 104 (0)
[1]: 44 <---- 103 (-2)
[1]: 45 <---- 104 (-2)
[1]: 45 <---- 88 (0)
[1]: 45 <---- 89 (0)
[1]: 45 <---- 105 (0)
[1]: 46 <---- 106 (0)
[1]: 46 <---- 105 (-2)
[1]: 46 <---- 90 (0)
[1]: 46 <---- 74 (-2)
[1]: 47 <---- 84 (-2)
[1]: 47 <---- 107 (0)
[1]: 47 <---- 110 (-2)
[1]: 47 <---- 75 (-2)
[1]: 48 <---- 83 (-2)
[1]: 48 <---- 91 (0)
[1]: 48 <---- 108 (0)
[1]: 48 <---- 107 (-2)
[1]: 49 <---- 108 (-2)
[1]: 49 <---- 92 (0)
[1]: 49 <---- 86 (-2)
[1]: 49 <---- 109 (0)
[1]: 50 <---- 110 (0)
[1]: 50 <---- 109 (-2)
[1]: 50 <---- 85 (-2)
[1]: 50 <---- 76 (-2)
[1]: 51 <---- 80 (-2)
[1]: 51 <---- 111 (0)
[1]: 51 <---- 114 (-2)
[1]: 51 <---- 94 (0)
[1]: 52 <---- 79 (-2)
[1]: 52 <---- 78 (-2)
[1]: 52 <---- 112 (0)
[1]: 52 <---- 111 (-2)
[1]: 53 <---- 112 (-2)
[1]: 53 <---- 77 (-2)
[1]: 53 <---- 90 (-2)
[1]: 53 <---- 113 (0)
[1]: 54 <---- 114 (0)
[1]: 54 <---- 113 (-2)
[1]: 54 <---- 89 (-2)
[1]: 54 <---- 93 (0)
[1]: 55 <---- 82 (-2)
[1]: 55 <---- 115 (0)
[1]: 55 <---- 118 (-2)
[1]: 55 <---- 91 (-2)
[1]: 56 <---- 81 (-2)
[1]: 56 <---- 94 (-2)
[1]: 56 <---- 116 (0)
[1]: 56 <---- 115 (-2)
[1]: 57 <---- 116 (-2)
[1]: 57 <---- 93 (-2)
[1]: 57 <---- 88 (-2)
[1]: 57 <---- 117 (0)
[1]: 58 <---- 118 (0)
[1]: 58 <---- 117 (-2)
[1]: 58 <---- 87 (-2)
[1]: 58 <---- 92 (-2)
[1]: 59 <---- 102 (0)
[1]: 59 <---- 119 (0)
[1]: 59 <---- 121 (-2)
[1]: 59 <---- 107 (-2)
[1]: 60 <---- 101 (0)
[1]: 60 <---- 119 (0)
[1]: 60 <---- 123 (-2)
[1]: 60 <---- 115 (-2)
[1]: 61 <---- 100 (-2)
[1]: 61 <---- 111 (0)
[1]: 61 <---- 122 (0)
[1]: 61 <---- 119 (-2)
[1]: 62 <---- 99 (-2)
[1]: 62 <---- 95 (0)
[1]: 62 <---- 124 (0)
[1]: 62 <---- 119 (-2)
[1]: 63 <---- 121 (-2)
[1]: 63 <---- 109 (-2)
[1]: 63 <---- 103 (0)
[1]: 63 <---- 120 (0)
[1]: 64 <---- 123 (-2)
[1]: 64 <---- 117 (-2)
[1]: 64 <---- 104 (0)
[1]: 64 <---- 120 (0)
[1]: 65 <---- 113 (-2)
[1]: 65 <---- 105 (0)
[1]: 65 <---- 120 (0)
[1]: 65 <---- 122 (-2)
[1]: 66 <---- 124 (-2)
[1]: 66 <---- 97 (-2)
[1]: 66 <---- 106 (0)
[1]: 66 <---- 120 (0)
[1]: 67 <---- 110 (0)
[1]: 67 <---- 121 (0)
[1]: 67 <---- 124 (-2)
[1]: 67 <---- 98 (-2)
[1]: 68 <---- 108 (-2)
[1]: 68 <---- 118 (0)
[1]: 68 <---- 123 (0)
[1]: 68 <---- 121 (-2)
[1]: 69 <---- 123 (-2)
[1]: 69 <---- 116 (-2)
[1]: 69 <---- 114 (0)
[1]: 69 <---- 122 (0)
[1]: 70 <---- 124 (0)
[1]: 70 <---- 122 (-2)
[1]: 70 <---- 112 (-2)
[1]: 70 <---- 96 (0)
[1]: 71 <---- 8 (0)
[1]: 71 <---- 16 (0)
[1]: 72 <---- 16 (0)
[1]: 72 <---- 9 (0)
[1]: 73 <---- 10 (0)
[1]: 73 <---- 17 (0)
[1]: 74 <---- 17 (0)
[1]: 74 <---- 11 (0)
[1]: 75 <---- 9 (0)
[1]: 75 <---- 18 (0)
[1]: 76 <---- 18 (0)
[1]: 76 <---- 10 (0)
[1]: 77 <---- 11 (0)
[1]: 77 <---- 19 (0)
[1]: 78 <---- 19 (0)
[1]: 78 <---- 8 (0)
[1]: 79 <---- 8 (0)
[1]: 79 <---- 20 (0)
[1]: 80 <---- 20 (0)
[1]: 80 <---- 12 (0)
[1]: 81 <---- 12 (0)
[1]: 81 <---- 21 (0)
[1]: 82 <---- 21 (0)
[1]: 82 <---- 13 (0)
[1]: 83 <---- 13 (0)
[1]: 83 <---- 22 (0)
[1]: 84 <---- 22 (0)
[1]: 84 <---- 9 (0)
[1]: 85 <---- 10 (0)
[1]: 85 <---- 23 (0)
[1]: 86 <---- 23 (0)
[1]: 86 <---- 14 (0)
[1]: 87 <---- 14 (0)
[1]: 87 <---- 24 (0)
[1]: 88 <---- 24 (0)
[1]: 88 <---- 15 (0)
[1]: 89 <---- 15 (0)
[1]: 89 <---- 25 (0)
[1]: 90 <---- 25 (0)
[1]: 90 <---- 11 (0)
[1]: 91 <---- 13 (0)
[1]: 91 <---- 26 (0)
[1]: 92 <---- 26 (0)
[1]: 92 <---- 14 (0)
[1]: 93 <---- 15 (0)
[1]: 93 <---- 27 (0)
[1]: 94 <---- 27 (0)
[1]: 94 <---- 12 (0)
[1]: 95 <---- 16 (0)
[1]: 95 <---- 28 (0)
[1]: 96 <---- 19 (0)
[1]: 96 <---- 28 (0)
[1]: 97 <---- 17 (0)
[1]: 97 <---- 28 (0)
[1]: 98 <---- 18 (0)
[1]: 98 <---- 28 (0)
[1]: 99 <---- 16 (0)
[1]: 99 <---- 29 (0)
[1]: 100 <---- 20 (0)
[1]: 100 <---- 29 (0)
[1]: 101 <---- 21 (0)
[1]: 101 <---- 29 (0)
[1]: 102 <---- 22 (0)
[1]: 102 <---- 29 (0)
[1]: 103 <---- 23 (0)
[1]: 103 <---- 30 (0)
[1]: 104 <---- 24 (0)
[1]: 104 <---- 30 (0)
[1]: 105 <---- 25 (0)
[1]: 105 <---- 30 (0)
[1]: 106 <---- 17 (0)
[1]: 106 <---- 30 (0)
[1]: 107 <---- 22 (0)
[1]: 107 <---- 31 (0)
[1]: 108 <---- 26 (0)
[1]: 108 <---- 31 (0)
[1]: 109 <---- 23 (0)
[1]: 109 <---- 31 (0)
[1]: 110 <---- 18 (0)
[1]: 110 <---- 31 (0)
[1]: 111 <---- 20 (0)
[1]: 111 <---- 32 (0)
[1]: 112 <---- 19 (0)
[1]: 112 <---- 32 (0)
[1]: 113 <---- 25 (0)
[1]: 113 <---- 32 (0)
[1]: 114 <---- 27 (0)
[1]: 114 <---- 32 (0)
[1]: 115 <---- 21 (0)
[1]: 115 <---- 33 (0)
[1]: 116 <---- 27 (0)
[1]: 116 <---- 33 (0)
[1]: 117 <---- 24 (0)
[1]: 117 <---- 33 (0)
[1]: 118 <---- 26 (0)
[1]: 118 <---- 33 (0)
[1]: 119 <---- 29 (0)
[1]: 119 <---- 34 (0)
[1]: 120 <---- 30 (0)
[1]: 120 <---- 34 (0)
[1]: 121 <---- 31 (0)
[1]: 121 <---- 34 (0)
[1]: 122 <---- 32 (0)
[1]: 122 <---- 34 (0)
[1]: 123 <---- 33 (0)
[1]: 123 <---- 34 (0)
[1]: 124 <---- 28 (0)
[1]: 124 <---- 34 (0)
coordinates with 1 fields
  field 0 with 3 components
Process 0:
  (   8) dim  3 offset   0 -1 -0.5 -0.5
  (   9) dim  3 offset   3 -1 0.5 -0.5
  (  10) dim  3 offset   6 0 0.5 -0.5
  (  11) dim  3 offset   9 0 -0.5 -0.5
  (  12) dim  3 offset  12 -1 -0.5 0.5
  (  13) dim  3 offset  15 0 -0.5 0.5
  (  14) dim  3 offset  18 0 0.5 0.5
  (  15) dim  3 offset  21 -1 0.5 0.5
  (  16) dim  3 offset  24 -1 0 -0.5
  (  17) dim  3 offset  27 -0.5 0.5 -0.5
  (  18) dim  3 offset  30 0 0 -0.5
  (  19) dim  3 offset  33 -0.5 -0.5 -0.5
  (  20) dim  3 offset  36 -0.5 -0.5 0.5
  (  21) dim  3 offset  39 0 0 0.5
  (  22) dim  3 offset  42 -0.5 0.5 0.5
  (  23) dim  3 offset  45 -1 0 0.5
  (  24) dim  3 offset  48 0 -0.5 0
  (  25) dim  3 offset  51 -1 -0.5 0
  (  26) dim  3 offset  54 -1 0.5 0
  (  27) dim  3 offset  57 0 0.5 0
  (  28) dim  3 offset  60 -0.5 0 -0.5
  (  29) dim  3 offset  63 -0.5 0 0.5
  (  30) dim  3 offset  66 -0.5 -0.5 0
  (  31) dim  3 offset  69 -0.5 0.5 0
  (  32) dim  3 offset  72 0 0 0
  (  33) dim  3 offset  75 -1 0 0
  (  34) dim  3 offset  78 -0.5 0 0
Process 1:
  (   8) dim  3 offset   0 0 0.5 -0.5
  (   9) dim  3 offset   3 0 -0.5 -0.5
  (  10) dim  3 offset   6 0 -0.5 0.5
  (  11) dim  3 offset   9 0 0.5 0.5
  (  12) dim  3 offset  12 1 0.5 -0.5
  (  13) dim  3 offset  15 1 -0.5 -0.5
  (  14) dim  3 offset  18 1 -0.5 0.5
  (  15) dim  3 offset  21 1 0.5 0.5
  (  16) dim  3 offset  24 0 0 -0.5
  (  17) dim  3 offset  27 0 0 0.5
  (  18) dim  3 offset  30 0 -0.5 0
  (  19) dim  3 offset  33 0 0.5 0
  (  20) dim  3 offset  36 0.5 0.5 -0.5
  (  21) dim  3 offset  39 1 0 -0.5
  (  22) dim  3 offset  42 0.5 -0.5 -0.5
  (  23) dim  3 offset  45 0.5 -0.5 0.5
  (  24) dim  3 offset  48 1 0 0.5
  (  25) dim  3 offset  51 0.5 0.5 0.5
  (  26) dim  3 offset  54 1 -0.5 0
  (  27) dim  3 offset  57 1 0.5 0
  (  28) dim  3 offset  60 0 0 0
  (  29) dim  3 offset  63 0.5 0 -0.5
  (  30) dim  3 offset  66 0.5 0 0.5
  (  31) dim  3 offset  69 0.5 -0.5 0
  (  32) dim  3 offset  72 0.5 0.5 0
  (  33) dim  3 offset  75 1 0 0
  (  34) dim  3 offset  78 0.5 0 0
PetscSF Object: 2 MPI processes
  type not yet set
  [0] Number of roots=125, leaves=25, remote ranks=1
  [0] 10 <- (1,8)
  [0] 11 <- (1,9)
  [0] 13 <- (1,10)
  [0] 14 <- (1,11)
  [0] 51 <- (1,35)
  [0] 52 <- (1,36)
  [0] 53 <- (1,37)
  [0] 54 <- (1,38)
  [0] 111 <- (1,95)
  [0] 112 <- (1,96)
  [0] 113 <- (1,97)
  [0] 114 <- (1,98)
  [0] 32 <- (1,28)
  [0] 75 <- (1,71)
  [0] 76 <- (1,72)
  [0] 18 <- (1,16)
  [0] 81 <- (1,73)
  [0] 82 <- (1,74)
  [0] 21 <- (1,17)
  [0] 87 <- (1,75)
  [0] 88 <- (1,76)
  [0] 24 <- (1,18)
  [0] 93 <- (1,77)
  [0] 94 <- (1,78)
  [0] 27 <- (1,19)
  [1] Number of roots=125, leaves=0, remote ranks=0
  [0] Roots referenced by my leaves, by rank
  [0] 1: 25 edges
  [0]    10 <- 8
  [0]    11 <- 9
  [0]    13 <- 10
  [0]    14 <- 11
  [0]    51 <- 35
  [0]    52 <- 36
  [0]    53 <- 37
  [0]    54 <- 38
  [0]    111 <- 95
  [0]    112 <- 96
  [0]    113 <- 97
  [0]    114 <- 98
  [0]    32 <- 28
  [0]    75 <- 71
  [0]    76 <- 72
  [0]    18 <- 16
  [0]    81 <- 73
  [0]    82 <- 74
  [0]    21 <- 17
  [0]    87 <- 75
  [0]    88 <- 76
  [0]    24 <- 18
  [0]    93 <- 77
  [0]    94 <- 78
  [0]    27 <- 19
  [1] Roots referenced by my leaves, by rank