Vec Object: 3 MPI processes
  type: mpi
Process [0]
0
1
2
3
4
5
6
7
8
9
Process [1]
10
11
12
13
14
15
16
Process [2]
17
18
19
20
[0] My part of redundant1 vector
Vec Object: 1 MPI processes
  type: seq
0
1
2
3
4
[1] My part of redundant1 vector
Vec Object: 1 MPI processes
  type: seq
0
1
2
3
4
[2] My part of redundant1 vector
Vec Object: 1 MPI processes
  type: seq
0
1
2
3
4
[0] My part of da1 vector
Vec Object: 1 MPI processes
  type: seq
5
6
7
10
[1] My part of da1 vector
Vec Object: 1 MPI processes
  type: seq
7
10
11
12
17
[2] My part of da1 vector
Vec Object: 1 MPI processes
  type: seq
12
17
18
[0] My part of redundant2 vector
Vec Object: 1 MPI processes
  type: seq
13
14
[1] My part of redundant2 vector
Vec Object: 1 MPI processes
  type: seq
13
14
[2] My part of redundant2 vector
Vec Object: 1 MPI processes
  type: seq
13
14
[0] My part of da2 vector
Vec Object: 1 MPI processes
  type: seq
8
9
15
[1] My part of da2 vector
Vec Object: 1 MPI processes
  type: seq
9
15
16
19
[2] My part of da2 vector
Vec Object: 1 MPI processes
  type: seq
16
19
20
Vec Object: 3 MPI processes
  type: mpi
Process [0]
0
2
4
6
8
5
6
7
8
9
Process [1]
10
11
12
0
11
15
16
Process [2]
17
18
19
20
Local to global mapping of redundant1 vector
[0] 0 0
[0] 1 1
[0] 2 2
[0] 3 3
[0] 4 4
[1] 0 0
[1] 1 1
[1] 2 2
[1] 3 3
[1] 4 4
[2] 0 0
[2] 1 1
[2] 2 2
[2] 3 3
[2] 4 4
Local to global mapping of local1 vector
[0] 0 5
[0] 1 6
[0] 2 7
[0] 3 10
[1] 0 7
[1] 1 10
[1] 2 11
[1] 3 12
[1] 4 17
[2] 0 12
[2] 1 17
[2] 2 18
Local to global mapping of redundant2 vector
[0] 0 13
[0] 1 14
[1] 0 13
[1] 1 14
[2] 0 13
[2] 1 14
Local to global mapping of local2 vector
[0] 0 8
[0] 1 9
[0] 2 15
[1] 0 9
[1] 1 15
[1] 2 16
[1] 3 19
[2] 0 16
[2] 1 19
[2] 2 20
