0 0 0.000000
0 1 1.000000
0 2 2.000000
0 3 3.000000
0 4 4.000000
0 5 5.000000
1 6 6.000000
1 7 7.000000
1 8 8.000000
1 9 9.000000
1 10 10.000000
1 11 11.000000
2 12 12.000000
2 13 13.000000
2 14 14.000000
4 28 28.000000
*** Matrix A and vector x:
Mat Object: 1 MPI processes
  type: mpiaij
row 0: (0, 4)  (1, -1)  (14, -1) 
row 1: (0, -1)  (1, 4)  (2, -1)  (15, -1) 
row 2: (1, -1)  (2, 4)  (3, -1)  (16, -1) 
row 3: (2, -1)  (3, 4)  (4, -1)  (17, -1) 
row 4: (3, -1)  (4, 4)  (5, -1)  (18, -1) 
row 5: (4, -1)  (5, 4)  (6, -1)  (19, -1) 
row 6: (5, -1)  (6, 4)  (7, -1)  (20, -1) 
row 7: (6, -1)  (7, 4)  (8, -1)  (21, -1) 
row 8: (7, -1)  (8, 4)  (9, -1)  (22, -1) 
row 9: (8, -1)  (9, 4)  (10, -1)  (23, -1) 
row 10: (9, -1)  (10, 4)  (11, -1)  (24, -1) 
row 11: (10, -1)  (11, 4)  (12, -1)  (25, -1) 
row 12: (11, -1)  (12, 4)  (13, -1)  (26, -1) 
row 13: (12, -1)  (13, 4)  (27, -1) 
row 14: (0, -1)  (14, 4)  (15, -1)  (28, -1) 
row 15: (1, -1)  (14, -1)  (15, 4)  (16, -1)  (29, -1) 
row 16: (2, -1)  (15, -1)  (16, 4)  (17, -1)  (30, -1) 
row 17: (3, -1)  (16, -1)  (17, 4)  (18, -1)  (31, -1) 
row 18: (4, -1)  (17, -1)  (18, 4)  (19, -1)  (32, -1) 
row 19: (5, -1)  (18, -1)  (19, 4)  (20, -1)  (33, -1) 
row 20: (6, -1)  (19, -1)  (20, 4)  (21, -1)  (34, -1) 
row 21: (7, -1)  (20, -1)  (21, 4)  (22, -1)  (35, -1) 
row 22: (8, -1)  (21, -1)  (22, 4)  (23, -1)  (36, -1) 
row 23: (9, -1)  (22, -1)  (23, 4)  (24, -1)  (37, -1) 
row 24: (10, -1)  (23, -1)  (24, 4)  (25, -1)  (38, -1) 
row 25: (11, -1)  (24, -1)  (25, 4)  (26, -1)  (39, -1) 
row 26: (12, -1)  (25, -1)  (26, 4)  (27, -1)  (40, -1) 
row 27: (13, -1)  (26, -1)  (27, 4)  (41, -1) 
row 28: (14, -1)  (28, 4)  (29, -1) 
row 29: (15, -1)  (28, -1)  (29, 4)  (30, -1) 
row 30: (16, -1)  (29, -1)  (30, 4)  (31, -1) 
row 31: (17, -1)  (30, -1)  (31, 4)  (32, -1) 
row 32: (18, -1)  (31, -1)  (32, 4)  (33, -1) 
row 33: (19, -1)  (32, -1)  (33, 4)  (34, -1) 
row 34: (20, -1)  (33, -1)  (34, 4)  (35, -1) 
row 35: (21, -1)  (34, -1)  (35, 4)  (36, -1) 
row 36: (22, -1)  (35, -1)  (36, 4)  (37, -1) 
row 37: (23, -1)  (36, -1)  (37, 4)  (38, -1) 
row 38: (24, -1)  (37, -1)  (38, 4)  (39, -1) 
row 39: (25, -1)  (38, -1)  (39, 4)  (40, -1) 
row 40: (26, -1)  (39, -1)  (40, 4)  (41, -1) 
row 41: (27, -1)  (40, -1)  (41, 4) 
Vec Object: 7 MPI processes
  type: mpi
Process [0]
0
1
2
3
4
5
Process [1]
6
7
8
9
10
11
Process [2]
12
13
14
0
0
0
Process [3]
0
0
0
0
0
0
Process [4]
0
0
0
0
28
0
Process [5]
0
0
0
0
0
0
Process [6]
0
0
0
0
0
0
*** Vector rhs returned by MatZeroRowsColumns
Vec Object: 7 MPI processes
  type: mpi
Process [0]
0
1
2
3
4
5
Process [1]
6
7
8
9
10
11
Process [2]
12
13
14
15
2
3
Process [3]
4
5
6
7
8
9
Process [4]
10
11
12
13
28
28
Process [5]
0
0
0
0
0
0
Process [6]
0
0
0
0
0
0
