0 16 8.000000
0 17 8.100000
0 0 0.000000
0 1 0.100000
0 2 1.000000
0 3 1.100000
1 8 4.000000
1 9 4.100000
1 4 2.000000
1 5 2.100000
1 6 3.000000
1 7 3.100000
*** Matrix A and vector x:
Mat Object: 1 MPI processes
  type: mpibaij
row 0: (0, 4)  (2, -1)  (8, -1) 
row 1: (1, 4)  (3, -1)  (9, -1) 
row 2: (0, -1)  (2, 4)  (4, -1)  (10, -1) 
row 3: (1, -1)  (3, 4)  (5, -1)  (11, -1) 
row 4: (2, -1)  (4, 4)  (6, -1)  (12, -1) 
row 5: (3, -1)  (5, 4)  (7, -1)  (13, -1) 
row 6: (4, -1)  (6, 4)  (14, -1) 
row 7: (5, -1)  (7, 4)  (15, -1) 
row 8: (0, -1)  (8, 4)  (10, -1)  (16, -1) 
row 9: (1, -1)  (9, 4)  (11, -1)  (17, -1) 
row 10: (2, -1)  (8, -1)  (10, 4)  (12, -1)  (18, -1) 
row 11: (3, -1)  (9, -1)  (11, 4)  (13, -1)  (19, -1) 
row 12: (4, -1)  (10, -1)  (12, 4)  (14, -1)  (20, -1) 
row 13: (5, -1)  (11, -1)  (13, 4)  (15, -1)  (21, -1) 
row 14: (6, -1)  (12, -1)  (14, 4)  (22, -1) 
row 15: (7, -1)  (13, -1)  (15, 4)  (23, -1) 
row 16: (8, -1)  (16, 4)  (18, -1) 
row 17: (9, -1)  (17, 4)  (19, -1) 
row 18: (10, -1)  (16, -1)  (18, 4)  (20, -1) 
row 19: (11, -1)  (17, -1)  (19, 4)  (21, -1) 
row 20: (12, -1)  (18, -1)  (20, 4)  (22, -1) 
row 21: (13, -1)  (19, -1)  (21, 4)  (23, -1) 
row 22: (14, -1)  (20, -1)  (22, 4) 
row 23: (15, -1)  (21, -1)  (23, 4) 
Vec Object: 2 MPI processes
  type: mpi
Process [0]
0
0.1
1
1.1
2
2.1
3
3.1
4
4.1
0
0
Process [1]
0
0
0
0
8
8.1
0
0
0
0
0
0
*** Vector rhs returned by MatZeroRowsColumns
Vec Object: 2 MPI processes
  type: mpi
Process [0]
0
0.1
1
1.1
2
2.1
3
3.1
4
4.1
5
5.2
Process [1]
2
2.1
3
3.1
8
8.1
8
8.1
0
0
0
0
